<?xml version="1.0" encoding="UTF-8"?>
<session version="1.0">
<refactoring comment="Rename local variable &apos;get&apos; in &apos;edu.buffalo.cse.steveResearch.MainActivity.GetMethodEx.getInternetData()&apos; to &apos;put&apos;&#x0A;- Original project: &apos;TornadoChat&apos;&#x0A;- Original element: &apos;edu.buffalo.cse.steveResearch.MainActivity.GetMethodEx.getInternetData().get&apos;&#x0A;- Renamed element: &apos;get&apos;&#x0A;- Update references to refactored element" description="Rename local variable &apos;get&apos;" id="org.eclipse.jdt.ui.rename.local.variable" input="/src&lt;edu.buffalo.cse.steveResearch{MainActivity.java[MainActivity[GetMethodEx~getInternetData@get!3029!3062!3037!3039!QHttpPut;!0!false" name="put" references="true" stamp="1365944904744" version="1.0"/>
</session>