<?xml version="1.0" encoding="UTF-8"?>
<session version="1.0">
<refactoring accessors="true" comment="Delete element from project &apos;SimpleDHT&apos;&#x0A;- Original project: &apos;SimpleDHT&apos;&#x0A;- Original element: &apos;edu.buffalo.cse.cse486586.simpledht.LDump.java&apos;" description="Delete element" element1="/src&lt;edu.buffalo.cse.cse486586.simpledht{LDump.java" elements="1" flags="589830" id="org.eclipse.jdt.ui.delete" resources="0" stamp="1364325476421" subPackages="false" version="1.0"/>
</session>